\relax 
\providecommand\hyper@newdestlabel[2]{}
\providecommand\HyperFirstAtBeginDocument{\AtBeginDocument}
\HyperFirstAtBeginDocument{\ifx\hyper@anchor\@undefined
\global\let\oldcontentsline\contentsline
\gdef\contentsline#1#2#3#4{\oldcontentsline{#1}{#2}{#3}}
\global\let\oldnewlabel\newlabel
\gdef\newlabel#1#2{\newlabelxx{#1}#2}
\gdef\newlabelxx#1#2#3#4#5#6{\oldnewlabel{#1}{{#2}{#3}}}
\AtEndDocument{\ifx\hyper@anchor\@undefined
\let\contentsline\oldcontentsline
\let\newlabel\oldnewlabel
\fi}
\fi}
\global\let\hyper@last\relax 
\gdef\HyperFirstAtBeginDocument#1{#1}
\providecommand\HyField@AuxAddToFields[1]{}
\providecommand\HyField@AuxAddToCoFields[2]{}
\catcode `"\active 
\catcode `<\active 
\catcode `>\active 
\@nameuse{es@quoting}
\babel@aux{spanish}{}
\@writefile{toc}{\contentsline {section}{\numberline {1}Introducci\IeC {\'o}n}{2}{section.1}\protected@file@percent }
\@writefile{toc}{\contentsline {section}{\numberline {2}Sistema con Raspberry Pi}{2}{section.2}\protected@file@percent }
\@writefile{lof}{\contentsline {figure}{\numberline {1}{\ignorespaces Diagrama general del prototipo.\relax }}{3}{figure.caption.2}\protected@file@percent }
\providecommand*\caption@xref[2]{\@setref\relax\@undefined{#1}}
\newlabel{diagrama-actual}{{1}{3}{Diagrama general del prototipo.\relax }{figure.caption.2}{}}
\@writefile{toc}{\contentsline {subsection}{\numberline {2.1}Raspberry Pi}{3}{subsection.2.1}\protected@file@percent }
\@writefile{lof}{\contentsline {figure}{\numberline {2}{\ignorespaces Tarjeta Raspberry Pi.\relax }}{3}{figure.caption.3}\protected@file@percent }
\newlabel{RPI2}{{2}{3}{Tarjeta Raspberry Pi.\relax }{figure.caption.3}{}}
\@writefile{toc}{\contentsline {subsection}{\numberline {2.2}Amptek DP5}{4}{subsection.2.2}\protected@file@percent }
\@writefile{lof}{\contentsline {figure}{\numberline {3}{\ignorespaces Tarjetas DP5 y PC5 en sandwich.\relax }}{4}{figure.caption.4}\protected@file@percent }
\newlabel{amptek}{{3}{4}{Tarjetas DP5 y PC5 en sandwich.\relax }{figure.caption.4}{}}
\@writefile{toc}{\contentsline {section}{\numberline {3}Plataformas alternativas a Raspberry Pi}{4}{section.3}\protected@file@percent }
\@writefile{toc}{\contentsline {subsection}{\numberline {3.1}Onion Omega2}{4}{subsection.3.1}\protected@file@percent }
\@writefile{toc}{\contentsline {subsection}{\numberline {3.2}ESP32}{4}{subsection.3.2}\protected@file@percent }
\@writefile{lof}{\contentsline {figure}{\numberline {4}{\ignorespaces M\IeC {\'o}dulo ESP32.\relax }}{5}{figure.caption.5}\protected@file@percent }
\newlabel{esp32}{{4}{5}{Módulo ESP32.\relax }{figure.caption.5}{}}
\@writefile{toc}{\contentsline {subsection}{\numberline {3.3}Nucleo-f767zi}{6}{subsection.3.3}\protected@file@percent }
\@writefile{lof}{\contentsline {figure}{\numberline {5}{\ignorespaces Nucleo-F767zi. Tomado de \url  { https://www.st.com/en/evaluation-tools/nucleo-f767zi.html}\relax }}{6}{figure.caption.6}\protected@file@percent }
\@writefile{toc}{\contentsline {section}{\numberline {4}Evaluaci\IeC {\'o}n de alternativas}{6}{section.4}\protected@file@percent }
\@writefile{toc}{\contentsline {subsection}{\numberline {4.1}Onion Omega2}{6}{subsection.4.1}\protected@file@percent }
\@writefile{toc}{\contentsline {subsection}{\numberline {4.2}ESP32}{6}{subsection.4.2}\protected@file@percent }
\@writefile{toc}{\contentsline {subsubsection}{\numberline {4.2.1}Verificaci\IeC {\'o}n de interfaz RS-232 de DP5}{6}{subsubsection.4.2.1}\protected@file@percent }
\@writefile{lof}{\contentsline {figure}{\numberline {6}{\ignorespaces Comunicaci\IeC {\'o}n serial.\relax }}{7}{figure.caption.7}\protected@file@percent }
\newlabel{uart}{{6}{7}{Comunicación serial.\relax }{figure.caption.7}{}}
\@writefile{lof}{\contentsline {figure}{\numberline {7}{\ignorespaces Cable utilizado para la conexi\IeC {\'o}n PC-DP5.\relax }}{8}{figure.caption.8}\protected@file@percent }
\newlabel{cable}{{7}{8}{Cable utilizado para la conexión PC-DP5.\relax }{figure.caption.8}{}}
\@writefile{lof}{\contentsline {figure}{\numberline {8}{\ignorespaces Ventana de conexi\IeC {\'o}n de la aplicaci\IeC {\'o}n DPPMCA.\relax }}{8}{figure.caption.9}\protected@file@percent }
\newlabel{connect}{{8}{8}{Ventana de conexión de la aplicación DPPMCA.\relax }{figure.caption.9}{}}
\@writefile{lof}{\contentsline {figure}{\numberline {9}{\ignorespaces Se\IeC {\~n}al de entrada para emular el bloque anal\IeC {\'o}gico.\relax }}{9}{figure.caption.10}\protected@file@percent }
\newlabel{waveform}{{9}{9}{Señal de entrada para emular el bloque analógico.\relax }{figure.caption.10}{}}
\@writefile{lof}{\contentsline {figure}{\numberline {10}{\ignorespaces Espectro obtenido para 10 s de adquisici\IeC {\'o}n.\relax }}{10}{figure.caption.11}\protected@file@percent }
\newlabel{seg10}{{10}{10}{Espectro obtenido para 10 s de adquisición.\relax }{figure.caption.11}{}}
\@writefile{lof}{\contentsline {figure}{\numberline {11}{\ignorespaces Espectro obtenido para 1 s de adquisici\IeC {\'o}n.\relax }}{10}{figure.caption.12}\protected@file@percent }
\newlabel{seg1}{{11}{10}{Espectro obtenido para 1 s de adquisición.\relax }{figure.caption.12}{}}
\@writefile{lof}{\contentsline {figure}{\numberline {12}{\ignorespaces Espectro obtenido para 100 ms de adquisici\IeC {\'o}n.\relax }}{11}{figure.caption.13}\protected@file@percent }
\newlabel{seg01}{{12}{11}{Espectro obtenido para 100 ms de adquisición.\relax }{figure.caption.13}{}}
\@writefile{lof}{\contentsline {figure}{\numberline {13}{\ignorespaces Env\IeC {\'\i }o de comando de texto para prender las fuentes del preamplificador.\relax }}{12}{figure.caption.14}\protected@file@percent }
\newlabel{shell-on}{{13}{12}{Envío de comando de texto para prender las fuentes del preamplificador.\relax }{figure.caption.14}{}}
\@writefile{lof}{\contentsline {figure}{\numberline {14}{\ignorespaces Env\IeC {\'\i }o de comando de texto para apagar las fuentes del preamplificador y solicitar el estado.\relax }}{13}{figure.caption.15}\protected@file@percent }
\newlabel{shell-off}{{14}{13}{Envío de comando de texto para apagar las fuentes del preamplificador y solicitar el estado.\relax }{figure.caption.15}{}}
\@writefile{toc}{\contentsline {subsubsection}{\numberline {4.2.2}Prueba b\IeC {\'a}sica de escritura/lectura por puerto UART en el ESP32}{13}{subsubsection.4.2.2}\protected@file@percent }
\@writefile{lof}{\contentsline {figure}{\numberline {15}{\ignorespaces ESP32-Wrover y conversor RS-232.\relax }}{14}{figure.caption.16}\protected@file@percent }
\newlabel{conversor}{{15}{14}{ESP32-Wrover y conversor RS-232.\relax }{figure.caption.16}{}}
\@writefile{toc}{\contentsline {subsubsection}{\numberline {4.2.3}Implementaci\IeC {\'o}n de c\IeC {\'o}digo para comunicaci\IeC {\'o}n con comandos seriales b\IeC {\'a}sicos}{16}{subsubsection.4.2.3}\protected@file@percent }
\@writefile{lof}{\contentsline {figure}{\numberline {16}{\ignorespaces Montaje para la evaluaci\IeC {\'o}n del ESP32 con DP5.\relax }}{16}{figure.caption.17}\protected@file@percent }
\newlabel{ESP32-DP5}{{16}{16}{Montaje para la evaluación del ESP32 con DP5.\relax }{figure.caption.17}{}}
\@writefile{lof}{\contentsline {figure}{\numberline {17}{\ignorespaces Respuesta al comando ``Request Netfinder''.\relax }}{17}{figure.caption.18}\protected@file@percent }
\newlabel{netfinder}{{17}{17}{Respuesta al comando ``Request Netfinder''.\relax }{figure.caption.18}{}}
\@writefile{lof}{\contentsline {figure}{\numberline {18}{\ignorespaces Respuesta al comando ``Request Status''.\relax }}{17}{figure.caption.19}\protected@file@percent }
\newlabel{rq-status}{{18}{17}{Respuesta al comando ``Request Status''.\relax }{figure.caption.19}{}}
\@writefile{lof}{\contentsline {figure}{\numberline {19}{\ignorespaces Respuesta a los comandos ``Enable MCA'' y ``Disable MCA''.\relax }}{18}{figure.caption.20}\protected@file@percent }
\newlabel{MCAS}{{19}{18}{Respuesta a los comandos ``Enable MCA'' y ``Disable MCA''.\relax }{figure.caption.20}{}}
\@writefile{lof}{\contentsline {figure}{\numberline {20}{\ignorespaces Espectro vac\IeC {\'\i }o.\relax }}{18}{figure.caption.21}\protected@file@percent }
\newlabel{1-spec}{{20}{18}{Espectro vacío.\relax }{figure.caption.21}{}}
\@writefile{lof}{\contentsline {figure}{\numberline {21}{\ignorespaces Adquisici\IeC {\'o}n de 10 s y espectro de respuesta en pantalla.\relax }}{19}{figure.caption.22}\protected@file@percent }
\newlabel{ADQUIS}{{21}{19}{Adquisición de 10 s y espectro de respuesta en pantalla.\relax }{figure.caption.22}{}}
\@writefile{toc}{\contentsline {subsubsection}{\numberline {4.2.4}Medici\IeC {\'o}n y estimaci\IeC {\'o}n de tiempos en las comunicaciones}{19}{subsubsection.4.2.4}\protected@file@percent }
\newlabel{eq1}{{1}{19}{Medición y estimación de tiempos en las comunicaciones}{equation.4.1}{}}
\@writefile{lof}{\contentsline {figure}{\numberline {22}{\ignorespaces Comando ``Request Status'' en el osciloscopio.\relax }}{20}{figure.caption.23}\protected@file@percent }
\newlabel{osc1}{{22}{20}{Comando ``Request Status'' en el osciloscopio.\relax }{figure.caption.23}{}}
\@writefile{lof}{\contentsline {figure}{\numberline {23}{\ignorespaces Comando ``Enable MCA'' y su respuesta en el osciloscopio.\relax }}{20}{figure.caption.24}\protected@file@percent }
\newlabel{osc2}{{23}{20}{Comando ``Enable MCA'' y su respuesta en el osciloscopio.\relax }{figure.caption.24}{}}
\@writefile{lot}{\contentsline {table}{\numberline {1}{\ignorespaces Tiempos de transmisi\IeC {\'o}n y recepci\IeC {\'o}n de los comandos implementados.\relax }}{21}{table.caption.25}\protected@file@percent }
\newlabel{tab-time}{{1}{21}{Tiempos de transmisión y recepción de los comandos implementados.\relax }{table.caption.25}{}}
\@writefile{lof}{\contentsline {figure}{\numberline {24}{\ignorespaces Medici\IeC {\'o}n del tiempo total de comunciac\IeC {\'o}n con 2 tarjetas DP5.\relax }}{22}{figure.caption.26}\protected@file@percent }
\newlabel{2spectros}{{24}{22}{Medición del tiempo total de comunciacón con 2 tarjetas DP5.\relax }{figure.caption.26}{}}
\@writefile{lof}{\contentsline {figure}{\numberline {25}{\ignorespaces Impresi\IeC {\'o}n en pantalla de los 2 espectros obtenidos.\relax }}{23}{figure.caption.27}\protected@file@percent }
\newlabel{2spec-cod}{{25}{23}{Impresión en pantalla de los 2 espectros obtenidos.\relax }{figure.caption.27}{}}
\@writefile{toc}{\contentsline {subsection}{\numberline {4.3}Implementaci\'on de la comunicaci\'on USB entre la Nucleo-f767zi y la DP5}{24}{subsection.4.3}\protected@file@percent }
\@writefile{toc}{\contentsline {subsubsection}{\numberline {4.3.1}Identificaci\'on perif\'erico en la DP5}{24}{subsubsection.4.3.1}\protected@file@percent }
\@writefile{lof}{\contentsline {figure}{\numberline {26}{\ignorespaces  Conexi\'on USB de la DP5 en Linux.\relax }}{24}{figure.caption.28}\protected@file@percent }
\newlabel{fig:usb_dp5}{{26}{24}{Conexi\'on USB de la DP5 en Linux.\relax }{figure.caption.28}{}}
\@writefile{lof}{\contentsline {figure}{\numberline {27}{\ignorespaces Perif\'ericos del microcontrolador Silab C8051F340.\relax }}{25}{figure.caption.29}\protected@file@percent }
\newlabel{fig:c8051}{{27}{25}{Perif\'ericos del microcontrolador Silab C8051F340.\relax }{figure.caption.29}{}}
\@writefile{lof}{\contentsline {figure}{\numberline {28}{\ignorespaces Diagrama de bloques USB0 del microcontrolador Silab C8051F340.\relax }}{25}{figure.caption.30}\protected@file@percent }
\newlabel{fig:c8051_usb}{{28}{25}{Diagrama de bloques USB0 del microcontrolador Silab C8051F340.\relax }{figure.caption.30}{}}
\@writefile{lof}{\contentsline {figure}{\numberline {29}{\ignorespaces Conexi\'on entre puerto mini-USB y Silab C8051F340.\relax }}{25}{figure.caption.31}\protected@file@percent }
\newlabel{fig:continuidad}{{29}{25}{Conexi\'on entre puerto mini-USB y Silab C8051F340.\relax }{figure.caption.31}{}}
\@writefile{toc}{\contentsline {subsubsection}{\numberline {4.3.2}Librer\'ia USB Host de STMicroelectronics}{26}{subsubsection.4.3.2}\protected@file@percent }
\@writefile{lof}{\contentsline {figure}{\numberline {30}{\ignorespaces Librer\'ia HOST. Tomado de UM1720.\relax }}{26}{figure.caption.32}\protected@file@percent }
\newlabel{fig:host_lib}{{30}{26}{Librer\'ia HOST. Tomado de UM1720.\relax }{figure.caption.32}{}}
\@writefile{lof}{\contentsline {figure}{\numberline {31}{\ignorespaces Arquitectura de la liber\'ia del \textit  {host}. Tomado de UM1720.\relax }}{26}{figure.caption.33}\protected@file@percent }
\newlabel{fig:host_lib_arch}{{31}{26}{Arquitectura de la liber\'ia del \textit {host}. Tomado de UM1720.\relax }{figure.caption.33}{}}
\@writefile{lof}{\contentsline {figure}{\numberline {32}{\ignorespaces M\'aquina de estados n\'ucleo. (Core State Machine). Tomado de UM1720.\relax }}{27}{figure.caption.34}\protected@file@percent }
\newlabel{fig:host_lib_csm}{{32}{27}{M\'aquina de estados n\'ucleo. (Core State Machine). Tomado de UM1720.\relax }{figure.caption.34}{}}
\@writefile{lot}{\contentsline {table}{\numberline {2}{\ignorespaces APIs de la clase CDC. Tomado de UM1720.\relax }}{28}{table.caption.35}\protected@file@percent }
\newlabel{tab:usb_cdc}{{2}{28}{APIs de la clase CDC. Tomado de UM1720.\relax }{table.caption.35}{}}
\@writefile{toc}{\contentsline {subsubsection}{\numberline {4.3.3}Configurando la Nucleo-f767zi como USB Host}{28}{subsubsection.4.3.3}\protected@file@percent }
\@writefile{lof}{\contentsline {figure}{\numberline {33}{\ignorespaces  Test de la comunicaci\'on USB.\relax }}{31}{figure.caption.36}\protected@file@percent }
\newlabel{fig:usb_dp5_nucleof767zi}{{33}{31}{Test de la comunicaci\'on USB.\relax }{figure.caption.36}{}}
\@writefile{toc}{\contentsline {subsubsection}{\numberline {4.3.4}Depuraci\'on del estado APPLICATION\_START}{31}{subsubsection.4.3.4}\protected@file@percent }
\@writefile{toc}{\contentsline {section}{\numberline {5}Conclusiones}{34}{section.5}\protected@file@percent }
