main.c:82:5:main	48	static
main.c:194:6:SystemClock_Config	232	static
main.c:254:13:MX_ETH_Init	8	static
main.c:296:13:MX_USART3_UART_Init	8	static
main.c:331:13:MX_GPIO_Init	56	static
main.c:378:6:UsbTest_Read	216	static
main.c:402:6:UsbTest_Write	16	static
main.c:425:6:Error_Handler	4	static
